<?xml version="1.0" encoding="UTF-8"?>
<robot generator="Robot 7.0 (Python 3.8.2 on win32)" generated="2024-02-05T11:54:29.088637" rpa="false" schemaversion="5">
<suite id="s1" name="TC 002 Get Request With Param" source="C:\Users\hp\PycharmProjects\RobotAPIAutomation\TC_002_Get_Request_With_Param.robot">
<test id="s1-t1" name="TC_002 Validate Get Request With Parameters" line="8">
<kw name="Create Session" owner="RequestsLibrary">
<msg time="2024-02-05T11:54:31.345458" level="INFO">Creating Session using : alias=Get_Param, url=https://reqres.in, headers={},                     cookies={}, auth=None, timeout=None, proxies=None, verify=False,                     debug=0 </msg>
<arg>Get_Param</arg>
<arg>${base_url}</arg>
<doc>Create Session: create a HTTP session to a server</doc>
<status status="PASS" start="2024-02-05T11:54:31.344469" elapsed="0.001993"/>
</kw>
<kw name="Create Dictionary" owner="BuiltIn">
<msg time="2024-02-05T11:54:31.349468" level="INFO">&amp;{param} = { page=2 }</msg>
<var>&amp;{param}</var>
<arg>page=2</arg>
<doc>Creates and returns a dictionary based on the given ``items``.</doc>
<status status="PASS" start="2024-02-05T11:54:31.348469" elapsed="0.000999"/>
</kw>
<kw name="GET On Session" owner="RequestsLibrary">
<msg time="2024-02-05T11:54:31.983853" level="INFO">GET Request : url=https://reqres.in/api/users?page=2 
 path_url=/api/users?page=2 
 headers={'User-Agent': 'python-requests/2.31.0', 'Accept-Encoding': 'gzip, deflate', 'Accept': '*/*', 'Connection': 'keep-alive'} 
 body=None 
 </msg>
<msg time="2024-02-05T11:54:31.984949" level="INFO">GET Response : url=https://reqres.in/api/users?page=2 
 status=200, reason=OK 
 headers={'Date': 'Mon, 05 Feb 2024 06:24:32 GMT', 'Content-Type': 'application/json; charset=utf-8', 'Transfer-Encoding': 'chunked', 'Connection': 'keep-alive', 'Report-To': '{"group":"heroku-nel","max_age":3600,"endpoints":[{"url":"https://nel.heroku.com/reports?ts=1706862586&amp;sid=c4c9725f-1ab0-44d8-820f-430df2718e11&amp;s=CXJFzvvenIR5uCNbmVzEvULsz5R7SkQ%2FXOhgo4kCjfQ%3D"}]}', 'Reporting-Endpoints': 'heroku-nel=https://nel.heroku.com/reports?ts=1706862586&amp;sid=c4c9725f-1ab0-44d8-820f-430df2718e11&amp;s=CXJFzvvenIR5uCNbmVzEvULsz5R7SkQ%2FXOhgo4kCjfQ%3D', 'Nel': '{"report_to":"heroku-nel","max_age":3600,"success_fraction":0.005,"failure_fraction":0.05,"response_headers":["Via"]}', 'X-Powered-By': 'Express', 'Access-Control-Allow-Origin': '*', 'Etag': 'W/"406-ut0vzoCuidvyMf8arZpMpJ6ZRDw"', 'Via': '1.1 vegur', 'Cache-Control': 'max-age=14400', 'CF-Cache-Status': 'HIT', 'Age': '3151', 'Vary': 'Accept-Encoding', 'Server': 'cloudflare', 'CF-RAY': '85091228bbe65512-DEL', 'Content-Encoding': 'gzip'} 
 body={"page":2,"per_page":6,"total":12,"total_pages":2,"data":[{"id":7,"email":"michael.lawson@reqres.in","first_name":"Michael","last_name":"Lawson","avatar":"https://reqres.in/img/faces/7-image.jpg"},{"id":8,"email":"lindsay.ferguson@reqres.in","first_name":"Lindsay","last_name":"Ferguson","avatar":"https://reqres.in/img/faces/8-image.jpg"},{"id":9,"email":"tobias.funke@reqres.in","first_name":"Tobias","last_name":"Funke","avatar":"https://reqres.in/img/faces/9-image.jpg"},{"id":10,"email":"byron.fields@reqres.in","first_name":"Byron","last_name":"Fields","avatar":"https://reqres.in/img/faces/10-image.jpg"},{"id":11,"email":"george.edwards@reqres.in","first_name":"George","last_name":"Edwards","avatar":"https://reqres.in/img/faces/11-image.jpg"},{"id":12,"email":"rachel.howell@reqres.in","first_name":"Rachel","last_name":"Howell","avatar":"https://reqres.in/img/faces/12-image.jpg"}],"support":{"url":"https://reqres.in/#support-heading","text":"To keep ReqRes free, contributions towards server costs are appreciated!"}} 
 </msg>
<msg time="2024-02-05T11:54:31.985941" level="INFO">c:\python38\lib\site-packages\urllib3\connectionpool.py:1099: InsecureRequestWarning: Unverified HTTPS request is being made to host 'reqres.in'. Adding certificate verification is strongly advised. See: https://urllib3.readthedocs.io/en/latest/advanced-usage.html#tls-warnings
  warnings.warn(</msg>
<msg time="2024-02-05T11:54:31.986939" level="INFO">${response} = &lt;Response [200]&gt;</msg>
<var>${response}</var>
<arg>Get_Param</arg>
<arg>/api/users</arg>
<arg>params=${param}</arg>
<doc>Sends a GET request on a previously created HTTP Session.</doc>
<status status="PASS" start="2024-02-05T11:54:31.349468" elapsed="0.637471"/>
</kw>
<kw name="Log To Console" owner="BuiltIn">
<arg>${response.status_code}</arg>
<doc>Logs the given message to the console.</doc>
<status status="PASS" start="2024-02-05T11:54:31.988940" elapsed="0.004000"/>
</kw>
<kw name="Log To Console" owner="BuiltIn">
<arg>${response.content}</arg>
<doc>Logs the given message to the console.</doc>
<status status="PASS" start="2024-02-05T11:54:31.993922" elapsed="0.004995"/>
</kw>
<kw name="Convert To String" owner="BuiltIn">
<msg time="2024-02-05T11:54:32.005530" level="INFO">${actual_code} = 200</msg>
<var>${actual_code}</var>
<arg>${response.status_code}</arg>
<doc>Converts the given item to a Unicode string.</doc>
<status status="PASS" start="2024-02-05T11:54:31.999926" elapsed="0.005604"/>
</kw>
<kw name="Should Be Equal" owner="BuiltIn">
<arg>${actual_code}</arg>
<arg>200</arg>
<doc>Fails if the given objects are unequal.</doc>
<status status="PASS" start="2024-02-05T11:54:32.007594" elapsed="0.002021"/>
</kw>
<kw name="Log To Console" owner="BuiltIn">
<arg>${response.text}</arg>
<doc>Logs the given message to the console.</doc>
<status status="PASS" start="2024-02-05T11:54:32.010614" elapsed="0.004973"/>
</kw>
<kw name="Convert String To Json" owner="JSONLibrary">
<msg time="2024-02-05T11:54:32.018586" level="INFO">${res_json} = {'page': 2, 'per_page': 6, 'total': 12, 'total_pages': 2, 'data': [{'id': 7, 'email': 'michael.lawson@reqres.in', 'first_name': 'Michael', 'last_name': 'Lawson', 'avatar': 'https://reqres.in/img/faces...</msg>
<var>${res_json}</var>
<arg>${response.text}</arg>
<doc>Convert String to JSON object</doc>
<status status="PASS" start="2024-02-05T11:54:32.016590" elapsed="0.001996"/>
</kw>
<kw name="Log To Console" owner="BuiltIn">
<arg>${res_json}</arg>
<doc>Logs the given message to the console.</doc>
<status status="PASS" start="2024-02-05T11:54:32.019589" elapsed="0.001002"/>
</kw>
<kw name="Get Value From Json" owner="JSONLibrary">
<msg time="2024-02-05T11:54:32.302137" level="INFO">@{first_name_list} = [ Michael ]</msg>
<var>@{first_name_list}</var>
<arg>${res_json}</arg>
<arg>data[0].first_name</arg>
<doc>Get Value From JSON using JSONPath</doc>
<status status="PASS" start="2024-02-05T11:54:32.020591" elapsed="0.281546"/>
</kw>
<kw name="Get From List" owner="Collections">
<msg time="2024-02-05T11:54:32.304139" level="INFO">${first_name} = Michael</msg>
<var>${first_name}</var>
<arg>${first_name_list}</arg>
<arg>0</arg>
<doc>Returns the value specified with an ``index`` from ``list``.</doc>
<status status="PASS" start="2024-02-05T11:54:32.303140" elapsed="0.000999"/>
</kw>
<kw name="Should Be Equal" owner="BuiltIn">
<arg>${first_name}</arg>
<arg>Michael</arg>
<doc>Fails if the given objects are unequal.</doc>
<status status="PASS" start="2024-02-05T11:54:32.304139" elapsed="0.000999"/>
</kw>
<status status="PASS" start="2024-02-05T11:54:31.340454" elapsed="0.964684"/>
</test>
<status status="PASS" start="2024-02-05T11:54:29.093632" elapsed="3.213504"/>
</suite>
<statistics>
<total>
<stat pass="1" fail="0" skip="0">All Tests</stat>
</total>
<tag>
</tag>
<suite>
<stat pass="1" fail="0" skip="0" id="s1" name="TC 002 Get Request With Param">TC 002 Get Request With Param</stat>
</suite>
</statistics>
<errors>
</errors>
</robot>
